…
``` r
pups_df=janitor::clean_names(pups_df)

pups_df
```

    ## # A tibble: 49 × 8
    ##    group litter_number   gd0_weight gd18_weight gd_of_birth pups_born_alive
    ##    <chr> <chr>           <chr>      <chr>             <dbl>           <dbl>
    ##  1 Con7  #85             19.7       34.7                 20               3
    ##  2 Con7  #1/2/95/2       27         42                   19               8
    ##  3 Con7  #5/5/3/83/3-3   26         41.4                 19               6
    ##  4 Con7  #5/4/2/95/2     28.5       44.1                 19               5
    ##  5 Con7  #4/2/95/3-3     <NA>       <NA>                 20               6
    ##  6 Con7  #2/2/95/3-2     <NA>       <NA>                 20               6
    ##  7 Con7  #1/5/3/83/3-3/2 <NA>       <NA>                 20               9
    ##  8 Con8  #3/83/3-3       <NA>       <NA>                 20               9
    ##  9 Con8  #2/95/3         <NA>       <NA>                 20               8
    ## 10 Con8  #3/5/2/2/95     28.5       <NA>                 20               8
    ## # ℹ 39 more rows
    ## # ℹ 2 more variables: pups_dead_birth <dbl>, pups_survive <dbl>
…
    ## Rows: 49 Columns: 8
    ## ── Column specification ────────────────────────────────────────────────────────
    ## Delimiter: ","
    ## chr (4): Group, Litter Number, GD0 weight, GD18 weight
    ## dbl (4): GD of Birth, Pups born alive, Pups dead @ birth, Pups survive
    ## 
    ## ℹ Use `spec()` to retrieve the full column specification for this data.
    ## ℹ Specify the column types or set `show_col_types = FALSE` to quiet this message.

``` r
pups_df
```

    ## # A tibble: 49 × 8
    ##    Group `Litter Number` `GD0 weight` `GD18 weight` `GD of Birth`
    ##    <chr> <chr>           <chr>        <chr>                 <dbl>
    ##  1 Con7  #85             19.7         34.7                     20
    ##  2 Con7  #1/2/95/2       27           42                       19
    ##  3 Con7  #5/5/3/83/3-3   26           41.4                     19
    ##  4 Con7  #5/4/2/95/2     28.5         44.1                     19
    ##  5 Con7  #4/2/95/3-3     <NA>         <NA>                     20
    ##  6 Con7  #2/2/95/3-2     <NA>         <NA>                     20
    ##  7 Con7  #1/5/3/83/3-3/2 <NA>         <NA>                     20
    ##  8 Con8  #3/83/3-3       <NA>         <NA>                     20
    ##  9 Con8  #2/95/3         <NA>         <NA>                     20
    ## 10 Con8  #3/5/2/2/95     28.5         <NA>                     20
    ## # ℹ 39 more rows
    ## # ℹ 3 more variables: `Pups born alive` <dbl>, `Pups dead @ birth` <dbl>,
    ## #   `Pups survive` <dbl>

``` r
litters_df
```

    ## # A tibble: 49 × 8
    ##    group litter_number   gd0_weight gd18_weight gd_of_birth pups_born_alive
    ##    <chr> <chr>           <chr>      <chr>             <dbl>           <dbl>
    ##  1 Con7  #85             19.7       34.7                 20               3
    ##  2 Con7  #1/2/95/2       27         42                   19               8
    ##  3 Con7  #5/5/3/83/3-3   26         41.4                 19               6
    ##  4 Con7  #5/4/2/95/2     28.5       44.1                 19               5
    ##  5 Con7  #4/2/95/3-3     <NA>       <NA>                 20               6
    ##  6 Con7  #2/2/95/3-2     <NA>       <NA>                 20               6
    ##  7 Con7  #1/5/3/83/3-3/2 <NA>       <NA>                 20               9
    ##  8 Con8  #3/83/3-3       <NA>       <NA>                 20               9
    ##  9 Con8  #2/95/3         <NA>       <NA>                 20               8
    ## 10 Con8  #3/5/2/2/95     28.5       <NA>                 20               8
    ## # ℹ 39 more rows
    ## # ℹ 2 more variables: pups_dead_birth <dbl>, pups_survive <dbl>
…
